alprazolam
barbital
bromazepam
camazepam
carisoprodol
chloral betaine
chloral hydrate
chlordiazepoxide
clobazam
clonazepam
clorazepate
clotiazepam
cloxazolam
delorazepam
diazepam
dichloraphenazone
estazolam
ethchlorvynol
ethinamate
ethyl loflazepate
fludiazepam
flunitrazepam†
flurazepam
fospropofol
halazepam
haloxazolam
ketazolam
loprazolam
lorazepam
lormetazepam
mebutamate
medazepam
meprobamate
methohexital
methylphenobarbital
midazolam
nimetazepam
nitrazepam
nordiazepam
oxazepam
oxazolam
paraldehyde
petrichloral
phenobarbital
pinazepam
prazepam
quazepam
temazepam†
tetrazepam
triazolam
zaleplon
zolpidem
zopiclone